%YAML 1.1
%TAG !u! tag:unity3d.com,2011:
--- !u!1 &6017016086550925841
GameObject:
  m_ObjectHideFlags: 0
  m_CorrespondingSourceObject: {fileID: 0}
  m_PrefabInstance: {fileID: 0}
  m_PrefabAsset: {fileID: 0}
  serializedVersion: 6
  m_Component:
  - component: {fileID: 7111395470323999711}
  - component: {fileID: 8597135415374397630}
  - component: {fileID: 4832364421059899066}
  - component: {fileID: 2653203884419181596}
  m_Layer: 5
  m_Name: TextMeshPro Roboto-Bold-64-LeftCenter-Black255 1777990370
  m_TagString: Untagged
  m_Icon: {fileID: 0}
  m_NavMeshLayer: 0
  m_StaticEditorFlags: 0
  m_IsActive: 1
--- !u!224 &7111395470323999711
RectTransform:
  m_ObjectHideFlags: 0
  m_CorrespondingSourceObject: {fileID: 0}
  m_PrefabInstance: {fileID: 0}
  m_PrefabAsset: {fileID: 0}
  m_GameObject: {fileID: 6017016086550925841}
  m_LocalRotation: {x: -0, y: -0, z: -0, w: 1}
  m_LocalPosition: {x: 0, y: 0, z: 0}
  m_LocalScale: {x: 1, y: 1, z: 1}
  m_ConstrainProportionsScale: 0
  m_Children: []
  m_Father: {fileID: 0}
  m_LocalEulerAnglesHint: {x: 0, y: 0, z: 0}
  m_AnchorMin: {x: 0, y: 1}
  m_AnchorMax: {x: 0, y: 1}
  m_AnchoredPosition: {x: 465.71497, y: -148.505}
  m_SizeDelta: {x: 0, y: 0}
  m_Pivot: {x: 0.5, y: 0.5}
--- !u!114 &8597135415374397630
MonoBehaviour:
  m_ObjectHideFlags: 0
  m_CorrespondingSourceObject: {fileID: 0}
  m_PrefabInstance: {fileID: 0}
  m_PrefabAsset: {fileID: 0}
  m_GameObject: {fileID: 6017016086550925841}
  m_Enabled: 1
  m_EditorHideFlags: 0
  m_Script: {fileID: 11500000, guid: 18b42570416bdca4697b2749e5bf8c5c, type: 3}
  m_Name: 
  m_EditorClassIdentifier: 
  data:
    id: 94:2252
    formattedName: Mini_game_2_WINLINE
    spriteName: 
    tags: c800000065000000
    childIndexes: 
    fcuInstance: {fileID: 0}
    gameObject: {fileID: 6017016086550925841}
    transformData:
      anchorMin: {x: 0, y: 1}
      anchorMax: {x: 0, y: 1}
      anchoredPosition: {x: 465.71497, y: -148.505}
      sizeDelta: {x: 663.43, y: 75.01, z: 0}
      localRotation: {x: 0, y: 0, z: 0, w: 1}
      localScale: {x: 1, y: 1, z: 1}
    singleColor: {r: 0, g: 0, b: 0, a: 1}
    spriteSize: {x: 0, y: 0}
    size: {x: 668, y: 46}
    position: {x: 134, y: -111}
    fcuImageType: 0
    buttonComponent: 0
    hash: 1777990370
    hashDataTree: "\u2014\u2014\u2014\u2014Mini_game_2_WINLINE/Mini_game_2_WINLINE\r\n   
      isVisible | True\r\n    Type | TEXT\r\n    GetFigmaRotationAngle | 0\r\n   
      StrokeWeight | 1\r\n    StrokeAlign | OUTSIDE\r\n    BlendMode | PASS_THROUGH\r\n   
      isVisible | True\r\n    Type | TEXT\r\n    GetFigmaRotationAngle | 0\r\n   
      StrokeWeight | 1\r\n    StrokeAlign | OUTSIDE\r\n    BlendMode | PASS_THROUGH\r\n   
      \u2014\u2014\u2014\u2014TextStyle\r\n        FontFamily | Roboto\r\n       
      FontWeight | 700\r\n        FontSize | 64\r\n        TextAlignHorizontal |
      LEFT\r\n        TextAlignVertical | CENTER\r\n    \u2014\u2014\u2014\u2014Fills\r\n       
      IsVisible | True\r\n        Type | SOLID\r\n        Color | RGBA(0.000, 0.000,
      0.000, 1.000)\r\n        BlendMode | NORMAL\r\n    \u2014\u2014\u2014\u2014ArcData\r\n       
      StartingAngle | 0\r\n        EndingAngle | 0\r\n        InnerRadius | 0\r\n"
    parentIndex: 0
    hierarchy: Mini_game_2_WINLINE/Mini_game_2_WINLINE
    spritePath: 
    link: 
    humanizedTextPrefabName: TextMeshPro Roboto-Bold-64-LeftCenter-Black255
    tagReason: 
    downloadAttempsCount: 0
    isDownloadable: 0
    isDuplicate: 0
    isMutual: 0
    isEmptyMask: 0
    isEmpty: 0
    needDownload: 0
    needGenerate: 0
    forceImage: 0
    forceContainer: 0
    isInsideDownloadable: 0
    insideForceImage: 0
    hasFontAsset: 1
--- !u!222 &4832364421059899066
CanvasRenderer:
  m_ObjectHideFlags: 0
  m_CorrespondingSourceObject: {fileID: 0}
  m_PrefabInstance: {fileID: 0}
  m_PrefabAsset: {fileID: 0}
  m_GameObject: {fileID: 6017016086550925841}
  m_CullTransparentMesh: 1
--- !u!114 &2653203884419181596
MonoBehaviour:
  m_ObjectHideFlags: 0
  m_CorrespondingSourceObject: {fileID: 0}
  m_PrefabInstance: {fileID: 0}
  m_PrefabAsset: {fileID: 0}
  m_GameObject: {fileID: 6017016086550925841}
  m_Enabled: 1
  m_EditorHideFlags: 0
  m_Script: {fileID: 11500000, guid: f4688fdb7df04437aeb418b961361dc5, type: 3}
  m_Name: 
  m_EditorClassIdentifier: 
  m_Material: {fileID: 0}
  m_Color: {r: 1, g: 1, b: 1, a: 1}
  m_RaycastTarget: 1
  m_RaycastPadding: {x: 0, y: 0, z: 0, w: 0}
  m_Maskable: 1
  m_OnCullStateChanged:
    m_PersistentCalls:
      m_Calls: []
  m_text: Mini_game_2_WINLINE
  m_isRightToLeft: 0
  m_fontAsset: {fileID: 11400000, guid: 646d2efb09065d141aa62c98e7a05a59, type: 2}
  m_sharedMaterial: {fileID: -2477984092646814380, guid: 646d2efb09065d141aa62c98e7a05a59, type: 2}
  m_fontSharedMaterials: []
  m_fontMaterial: {fileID: 0}
  m_fontMaterials: []
  m_fontColor32:
    serializedVersion: 2
    rgba: 4278190080
  m_fontColor: {r: 0, g: 0, b: 0, a: 1}
  m_enableVertexGradient: 0
  m_colorMode: 3
  m_fontColorGradient:
    topLeft: {r: 1, g: 1, b: 1, a: 1}
    topRight: {r: 1, g: 1, b: 1, a: 1}
    bottomLeft: {r: 1, g: 1, b: 1, a: 1}
    bottomRight: {r: 1, g: 1, b: 1, a: 1}
  m_fontColorGradientPreset: {fileID: 0}
  m_spriteAsset: {fileID: 0}
  m_tintAllSprites: 0
  m_StyleSheet: {fileID: 0}
  m_TextStyleHashCode: -1183493901
  m_overrideHtmlColors: 0
  m_faceColor:
    serializedVersion: 2
    rgba: 4294967295
  m_fontSize: 64
  m_fontSizeBase: 64
  m_fontWeight: 400
  m_enableAutoSizing: 0
  m_fontSizeMin: 18
  m_fontSizeMax: 72
  m_fontStyle: 0
  m_HorizontalAlignment: 1
  m_VerticalAlignment: 512
  m_textAlignment: 65535
  m_characterSpacing: 0
  m_wordSpacing: 0
  m_lineSpacing: 0
  m_lineSpacingMax: 0
  m_paragraphSpacing: 0
  m_charWidthMaxAdj: 0
  m_enableWordWrapping: 1
  m_wordWrappingRatios: 0.4
  m_overflowMode: 0
  m_linkedTextComponent: {fileID: 0}
  parentLinkedComponent: {fileID: 0}
  m_enableKerning: 1
  m_enableExtraPadding: 0
  checkPaddingRequired: 0
  m_isRichText: 1
  m_parseCtrlCharacters: 1
  m_isOrthographic: 1
  m_isCullingEnabled: 0
  m_horizontalMapping: 0
  m_verticalMapping: 0
  m_uvLineOffset: 0
  m_geometrySortingOrder: 0
  m_IsTextObjectScaleStatic: 0
  m_VertexBufferAutoSizeReduction: 0
  m_useMaxVisibleDescender: 1
  m_pageToDisplay: 1
  m_margin: {x: 0, y: 0, z: 0, w: 0}
  m_isUsingLegacyAnimationComponent: 0
  m_isVolumetricText: 0
  m_hasFontAssetChanged: 0
  m_baseMaterial: {fileID: 0}
  m_maskOffset: {x: 0, y: 0, z: 0, w: 0}
