%YAML 1.1
%TAG !u! tag:unity3d.com,2011:
--- !u!1 &6325092841723173906
GameObject:
  m_ObjectHideFlags: 0
  m_CorrespondingSourceObject: {fileID: 0}
  m_PrefabInstance: {fileID: 0}
  m_PrefabAsset: {fileID: 0}
  serializedVersion: 6
  m_Component:
  - component: {fileID: 3019001556841962777}
  - component: {fileID: 4985742485320911079}
  - component: {fileID: 8605923232820967476}
  - component: {fileID: 5346715501863454650}
  m_Layer: 5
  m_Name: Group 47 -531522000
  m_TagString: Untagged
  m_Icon: {fileID: 0}
  m_NavMeshLayer: 0
  m_StaticEditorFlags: 0
  m_IsActive: 1
--- !u!224 &3019001556841962777
RectTransform:
  m_ObjectHideFlags: 0
  m_CorrespondingSourceObject: {fileID: 0}
  m_PrefabInstance: {fileID: 0}
  m_PrefabAsset: {fileID: 0}
  m_GameObject: {fileID: 6325092841723173906}
  m_LocalRotation: {x: 0, y: 0, z: 0, w: 1}
  m_LocalPosition: {x: 0, y: 0, z: 0}
  m_LocalScale: {x: 1, y: 1, z: 1}
  m_ConstrainProportionsScale: 0
  m_Children: []
  m_Father: {fileID: 0}
  m_LocalEulerAnglesHint: {x: 0, y: 0, z: 0}
  m_AnchorMin: {x: 0, y: 1}
  m_AnchorMax: {x: 0, y: 1}
  m_AnchoredPosition: {x: 3301.5, y: -961}
  m_SizeDelta: {x: 355, y: 488}
  m_Pivot: {x: 0.5, y: 0.5}
--- !u!114 &4985742485320911079
MonoBehaviour:
  m_ObjectHideFlags: 0
  m_CorrespondingSourceObject: {fileID: 0}
  m_PrefabInstance: {fileID: 0}
  m_PrefabAsset: {fileID: 0}
  m_GameObject: {fileID: 6325092841723173906}
  m_Enabled: 1
  m_EditorHideFlags: 0
  m_Script: {fileID: 11500000, guid: 18b42570416bdca4697b2749e5bf8c5c, type: 3}
  m_Name: 
  m_EditorClassIdentifier: 
  data:
    id: 96:3399
    formattedName: Group 47
    spriteName: Group 47 4x -531522000.png
    tags: c9000000
    childIndexes: 
    fcuInstance: {fileID: 0}
    gameObject: {fileID: 6325092841723173906}
    transformData:
      anchorMin: {x: 0, y: 1}
      anchorMax: {x: 0, y: 1}
      anchoredPosition: {x: 202.5, y: -516}
      sizeDelta: {x: 355, y: 488, z: 0}
      localRotation: {x: 0, y: 0, z: 0, w: 1}
      localScale: {x: 1, y: 1, z: 1}
    singleColor: {r: 1, g: 1, b: 1, a: 1}
    spriteSize: {x: 1420, y: 1952}
    size: {x: 355, y: 488}
    position: {x: 3124, y: -717}
    fcuImageType: 1
    buttonComponent: 0
    hash: -531522000
    hashDataTree: "\u2014\u2014\u2014\u2014Mini_game_2_WINLINE/4/Group 47\r\n   
      isVisible | True\r\n    Type | GROUP\r\n    GetFigmaRotationAngle | 0\r\n   
      StrokeWeight | 1\r\n    StrokeAlign | INSIDE\r\n    CornerRadius | 2\r\n   
      BlendMode | PASS_THROUGH\r\n    ClipsContent | False\r\n    Size | (355.00,
      488.00)\r\n    isVisible | True\r\n    Type | GROUP\r\n    GetFigmaRotationAngle
      | 0\r\n    StrokeWeight | 1\r\n    StrokeAlign | INSIDE\r\n    CornerRadius
      | 2\r\n    BlendMode | PASS_THROUGH\r\n    ClipsContent | False\r\n    Size
      | (355.00, 488.00)\r\n    \u2014\u2014\u2014\u2014ArcData\r\n        StartingAngle
      | 0\r\n        EndingAngle | 0\r\n        InnerRadius | 0\r\n\u2014\u2014\u2014\u2014Mini_game_2_WINLINE/4/Group
      47/Rectangle 19\r\n    isVisible | True\r\n    Type | RECTANGLE\r\n    GetFigmaRotationAngle
      | 0\r\n    FillGeometry | -1218379118\r\n    StrokeWeight | 1\r\n    StrokeAlign
      | INSIDE\r\n    CornerRadius | 2\r\n    BlendMode | PASS_THROUGH\r\n    Size
      | (100.00, 16.00)\r\n    isVisible | True\r\n    Type | RECTANGLE\r\n    GetFigmaRotationAngle
      | 0\r\n    FillGeometry | -1218379118\r\n    StrokeWeight | 1\r\n    StrokeAlign
      | INSIDE\r\n    CornerRadius | 2\r\n    BlendMode | PASS_THROUGH\r\n    Size
      | (100.00, 16.00)\r\n    \u2014\u2014\u2014\u2014Fills\r\n        IsVisible
      | True\r\n        Type | SOLID\r\n        Color | RGBA(1.000, 1.000, 1.000,
      1.000)\r\n        BlendMode | NORMAL\r\n    \u2014\u2014\u2014\u2014ArcData\r\n       
      StartingAngle | 0\r\n        EndingAngle | 0\r\n        InnerRadius | 0\r\n   
      \u2014\u2014\u2014\u2014Mini_game_2_WINLINE/4/Group 47/Rectangle 20\r\n       
      isVisible | True\r\n        Type | RECTANGLE\r\n        GetFigmaRotationAngle
      | 0\r\n        FillGeometry | -1218379118\r\n        StrokeWeight | 1\r\n       
      StrokeAlign | INSIDE\r\n        CornerRadius | 2\r\n        BlendMode | PASS_THROUGH\r\n       
      Size | (100.00, 16.00)\r\n        isVisible | True\r\n        Type | RECTANGLE\r\n       
      GetFigmaRotationAngle | 0\r\n        FillGeometry | -1218379118\r\n       
      StrokeWeight | 1\r\n        StrokeAlign | INSIDE\r\n        CornerRadius |
      2\r\n        BlendMode | PASS_THROUGH\r\n        Size | (100.00, 16.00)\r\n       
      \u2014\u2014\u2014\u2014Fills\r\n            IsVisible | True\r\n           
      Type | SOLID\r\n            Color | RGBA(1.000, 1.000, 1.000, 1.000)\r\n           
      BlendMode | NORMAL\r\n        \u2014\u2014\u2014\u2014ArcData\r\n           
      StartingAngle | 0\r\n            EndingAngle | 0\r\n            InnerRadius
      | 0\r\n        \u2014\u2014\u2014\u2014Mini_game_2_WINLINE/4/Group 47/Rectangle
      22\r\n            isVisible | True\r\n            Type | RECTANGLE\r\n           
      GetFigmaRotationAngle | 0\r\n            FillGeometry | -1218379118\r\n           
      StrokeWeight | 1\r\n            StrokeAlign | INSIDE\r\n            CornerRadius
      | 2\r\n            BlendMode | PASS_THROUGH\r\n            Size | (100.00,
      16.00)\r\n            isVisible | True\r\n            Type | RECTANGLE\r\n           
      GetFigmaRotationAngle | 0\r\n            FillGeometry | -1218379118\r\n           
      StrokeWeight | 1\r\n            StrokeAlign | INSIDE\r\n            CornerRadius
      | 2\r\n            BlendMode | PASS_THROUGH\r\n            Size | (100.00,
      16.00)\r\n            \u2014\u2014\u2014\u2014Fills\r\n                IsVisible
      | True\r\n                Type | SOLID\r\n                Color | RGBA(1.000,
      1.000, 1.000, 1.000)\r\n                BlendMode | NORMAL\r\n            \u2014\u2014\u2014\u2014ArcData\r\n               
      StartingAngle | 0\r\n                EndingAngle | 0\r\n                InnerRadius
      | 0\r\n            \u2014\u2014\u2014\u2014Mini_game_2_WINLINE/4/Group 47/Rectangle
      21\r\n                isVisible | True\r\n                Type | RECTANGLE\r\n               
      GetFigmaRotationAngle | 0\r\n                FillGeometry | -1218379118\r\n               
      StrokeWeight | 1\r\n                StrokeAlign | INSIDE\r\n               
      CornerRadius | 2\r\n                BlendMode | PASS_THROUGH\r\n               
      Size | (100.00, 16.00)\r\n                isVisible | True\r\n               
      Type | RECTANGLE\r\n                GetFigmaRotationAngle | 0\r\n               
      FillGeometry | -1218379118\r\n                StrokeWeight | 1\r\n               
      StrokeAlign | INSIDE\r\n                CornerRadius | 2\r\n               
      BlendMode | PASS_THROUGH\r\n                Size | (100.00, 16.00)\r\n               
      \u2014\u2014\u2014\u2014Fills\r\n                    IsVisible | True\r\n                   
      Type | SOLID\r\n                    Color | RGBA(1.000, 1.000, 1.000, 1.000)\r\n                   
      BlendMode | NORMAL\r\n                \u2014\u2014\u2014\u2014ArcData\r\n                   
      StartingAngle | 0\r\n                    EndingAngle | 0\r\n                   
      InnerRadius | 0\r\n"
    parentIndex: 153
    hierarchy: Mini_game_2_WINLINE/4/Group 47
    spritePath: 
    link: 
    humanizedTextPrefabName: 
    tagReason: SingleImage
    downloadAttempsCount: 0
    isDownloadable: 0
    isDuplicate: 0
    isMutual: 0
    isEmptyMask: 0
    isEmpty: 0
    needDownload: 0
    needGenerate: 0
    forceImage: 1
    forceContainer: 0
    isInsideDownloadable: 0
    insideForceImage: 0
    hasFontAsset: 0
--- !u!222 &8605923232820967476
CanvasRenderer:
  m_ObjectHideFlags: 0
  m_CorrespondingSourceObject: {fileID: 0}
  m_PrefabInstance: {fileID: 0}
  m_PrefabAsset: {fileID: 0}
  m_GameObject: {fileID: 6325092841723173906}
  m_CullTransparentMesh: 1
--- !u!114 &5346715501863454650
MonoBehaviour:
  m_ObjectHideFlags: 0
  m_CorrespondingSourceObject: {fileID: 0}
  m_PrefabInstance: {fileID: 0}
  m_PrefabAsset: {fileID: 0}
  m_GameObject: {fileID: 6325092841723173906}
  m_Enabled: 1
  m_EditorHideFlags: 0
  m_Script: {fileID: 11500000, guid: fe87c0e1cc204ed48ad3b37840f39efc, type: 3}
  m_Name: 
  m_EditorClassIdentifier: 
  m_Material: {fileID: 0}
  m_Color: {r: 1, g: 1, b: 1, a: 1}
  m_RaycastTarget: 1
  m_RaycastPadding: {x: 0, y: 0, z: 0, w: 0}
  m_Maskable: 1
  m_OnCullStateChanged:
    m_PersistentCalls:
      m_Calls: []
  m_Sprite: {fileID: 21300000, guid: 1b961a85c74967d429214f0ecb363931, type: 3}
  m_Type: 0
  m_PreserveAspect: 1
  m_FillCenter: 1
  m_FillMethod: 4
  m_FillAmount: 1
  m_FillClockwise: 1
  m_FillOrigin: 0
  m_UseSpriteMesh: 0
  m_PixelsPerUnitMultiplier: 1
